{
	"_id": {
		"$oid": "575a044e80e55946bcdd904c"
	},
	"text": "Cheese + Meats + Wine + GFs = Pure Happiness (am I right????) 👯🧀🍷 // @ Bar Pastoral https://t.co/91UzYszt2T",
	"id": {
		"$numberLong": "741058641399189505"
	},
	"coordinates": {
		"type": "Point",
		"coordinates": [
			-87.6440754,
			41.9361293
		]
	},
	"geo": {
		"type": "Point",
		"coordinates": [
			41.9361293,
			-87.6440754
		]
	},
	"created_at": {
		"$date": "2016-06-10T00:05:22.000Z"
	}
}