{
	"_id": {
		"$oid": "575a0bad80e55946bcddc746"
	},
	"text": "Windy City Sunsets!! #viewsthroughtheframe #bframesummer16 @ Navy Pier https://t.co/VAWIDknAqn",
	"id": {
		"$numberLong": "741066556638121984"
	},
	"coordinates": {
		"type": "Point",
		"coordinates": [
			-87.60824827,
			41.89145729
		]
	},
	"geo": {
		"type": "Point",
		"coordinates": [
			41.89145729,
			-87.60824827
		]
	},
	"created_at": {
		"$date": "2016-06-10T00:36:50.000Z"
	}
}