{
	"_id": {
		"$oid": "575a164f80e55946bcddfe41"
	},
	"text": "I'm at @ParkTavernUc in Chicago, IL https://t.co/PWDarY7alJ",
	"id": {
		"$numberLong": "741077976163463169"
	},
	"coordinates": {
		"type": "Point",
		"coordinates": [
			-87.66697168,
			41.87737398
		]
	},
	"geo": {
		"type": "Point",
		"coordinates": [
			41.87737398,
			-87.66697168
		]
	},
	"created_at": {
		"$date": "2016-06-10T01:22:12.000Z"
	}
}